HUGEN 2072 Project 8
…
gwas1

## # A tibble: 104,466 × 18
##    variant.id   chr     pos effect_allele other_allele imp_r2   freq genotyped
##         <dbl> <dbl>   <dbl> <chr>         <chr>         <dbl>  <dbl> <lgl>    
##  1         21     1  891887 T             C             0.985 0.895  FALSE    
##  2         28     1  904493 T             C             1     0.356  FALSE    
##  3         30     1  911085 T             C             0.990 0.195  FALSE    
##  4         54     1  993941 C             A             0.998 0.934  FALSE    
##  5         70     1 1027340 T             C             0.993 0.0974 FALSE    
##  6         73     1 1035075 A             G             0.995 0.0110 FALSE    
##  7         74     1 1036806 T             C             0.981 0.0129 FALSE    
##  8         80     1 1059011 T             G             0.998 0.773  FALSE    
##  9         88     1 1086657 T             C             0.992 0.588  FALSE    
## 10        114     1 1194540 A             G             0.999 0.104  FALSE    
## # ℹ 104,456 more rows
## # ℹ 10 more variables: n.obs <dbl>, MAC <dbl>, Score <dbl>, Score.SE <dbl>,
## #   Score.Stat <dbl>, Score.pval <dbl>, Est <dbl>, Est.SE <dbl>, PVE <dbl>,
## #   strand <chr>
…
